1,2,2,1,1612516
1,2,2,2,3494684
1,2,3,2,2879343
1,3,3,2,2441318
1,3,3,3,2023807
1,3,4,3,3187675
1,4,4,3,3468958
1,4,4,4,3512870
1,4,5,4,3710313
1,5,5,4,3869140
1,5,5,5,4206463
1,5,6,5,4312993
1,6,6,5,4820749
1,6,6,6,5714348
1,6,7,6,5891094
1,7,7,6,7364491
1,7,7,7,7876949
1,7,8,7,8747257
1,8,8,7,10918686
1,8,8,8,10823160
1,8,9,8,12008440
1,9,9,8,14140459
1,9,9,9,15750933
1,9,10,9,16828882
1,10,10,9,20429123
1,10,10,10,23446783
1,10,11,10,24488600
2,2,2,1,1674361
2,2,2,2,3020322
2,2,3,2,3396763
2,3,3,2,3607863
2,3,3,3,4740491
2,3,4,3,6014349
2,4,4,3,14848378
2,4,4,4,19038152
3,2,2,1,2631883
3,2,2,2,4555794
3,2,3,2,6301662
4,2,2,1,8043290
4,2,2,2,14451727
