1,2,2,1,1432480,8812788,1189473,120884150,99274714
1,2,2,2,1942341,8428970,1210917,243195919,216208168
1,2,3,2,2794355,8941941,2054507,245048350,211783750
1,3,3,2,2695911,8435307,3533849,409858985,332152122
1,3,3,3,3006142,8548857,3386563,543833885,459041035
1,3,4,3,3249238,8501314,4466042,585187567,482607103
1,4,4,3,3239704,8362876,7983996,856433981,653278202
1,4,4,4,3511329,8525296,12050268,1135259225,848236466
1,4,5,4,3221703,8762932,11573696,1211919176,873354099
1,5,5,4,2837709,8730989,15606299,1668363725,1114924803
1,5,5,5,4062991,8775589,14961803,2149530380,1423600182
1,5,6,5,5436326,9209016,20016686,3626374600,2526214395
1,6,6,5,5449372,9746287,23325686,3530087161,2076644147
1,6,6,6,7108817,11208451,24917328,4466112617,2632708250
1,6,7,6,5974787,8659838,28801221,4215662983,2348052959
1,7,7,6,6546725,8919546,40381811,5667482899,2878124059
1,7,7,7,7711698,8124697,38106037,6580144363,3343109647
1,7,8,7,7075063,8759538,44575433,7040673032,3432464130
1,8,8,7,9853537,8536297,55015521,9634355435,4408949585
1,8,8,8,11276177,8521014,54867059,10937601646,4869647871
1,8,9,8,11232790,7878922,63409500,11647440390,5070963384
2,2,2,1,1973813,11974993,8376966,295917090,232287992
2,2,2,2,2838076,12256916,11255448,569588066,456766828
2,2,3,2,3341968,12229284,19998283,740244258,528655834
2,3,3,2,4010218,12471243,80589677,2013507198,1456630705
2,3,3,3,4879253,11948317,84394243,2982358025,2159975238
2,3,4,3,6012577,11985931,128226808,4518796517,3175340033
2,4,4,3,11754653,11986153,425660536,13311913615,10362333513
3,2,2,1,2235143,12197596,75639232,978250241,745756292
3,2,2,2,4089946,11883715,79751281,1839667531,1410086139
3,2,3,2,5686169,12170644,244774152,4651836821,3421419322
4,2,2,1,6142136,17809968,738893104,6906669546,6108986294
