1,2,2,1,1639107
1,2,2,2,2668590
1,2,3,2,2477872
1,3,3,2,1822570
1,3,3,3,2987748
1,3,4,3,2930960
1,4,4,3,3133129
1,4,4,4,4338148
1,4,5,4,3916851
1,5,5,4,3490784
1,5,5,5,3568259
1,5,6,5,4193477
1,6,6,5,5915995
1,6,6,6,5347476
1,6,7,6,5989562
1,7,7,6,7393024
1,7,7,7,8264023
1,7,8,7,8709395
1,8,8,7,10135869
1,8,8,8,11223328
1,8,9,8,10739357
1,9,9,8,16845200
1,9,9,9,16515332
1,9,10,9,20593221
1,10,10,9,24603506
1,10,10,10,24532355
2,2,2,1,1676422
2,2,2,2,2083318
2,2,3,2,3307930
2,3,3,2,4219687
2,3,3,3,4985398
2,3,4,3,5969918
2,4,4,3,12543873
2,4,4,4,16279900
2,4,5,4,23870867
3,2,2,1,2271911
3,2,2,2,4008122
3,2,3,2,6493035
4,2,2,1,7337750
4,2,2,2,13818549
