1,2,2,1,1401221,7812202,1262788,130739480,111387684
1,2,2,2,1824450,8813361,1299626,231134644,203597431
1,2,3,2,2749206,7778229,1710162,238153853,207328568
1,3,3,2,2699904,7732788,3346198,384735749,325791366
1,3,3,3,1951079,8588573,3439886,558853667,469484896
1,3,4,3,2210547,8004958,4411243,591538079,485775912
1,4,4,3,3395955,8521287,7242550,859445097,646602816
1,4,4,4,2719353,8616520,10467333,1137500895,860705148
1,4,5,4,3560816,14134281,13437999,1199052309,878589357
1,5,5,4,4623245,8621568,12857785,1704092497,1141612955
1,5,5,5,4363524,8365529,18813182,2170350174,1447749542
1,5,6,5,4594952,8805323,20985478,2300624523,1460845262
1,6,6,5,4880962,8524303,24139445,3221731906,1883858326
1,6,6,6,5918345,8474549,26823001,3816440889,2242306867
1,6,7,6,6057347,8551378,25698051,4121422634,2302706507
1,7,7,6,6364597,8416624,37508474,5574357287,2840893761
1,7,7,7,7508673,9084583,39654873,6478211863,3279640119
1,7,8,7,8309216,8537638,36243579,7010466960,3466108391
1,8,8,7,9906019,8588077,55301692,9357278761,4291085268
1,8,8,8,10961640,8842288,53118242,10896375811,4923210622
1,8,9,8,11376505,8693596,61670162,11798240603,5152255054
2,2,2,1,1648000,12084511,10773356,300708068,232513876
2,2,2,2,2996558,12260622,8190561,548977989,444341617
2,2,3,2,2943535,12522131,21050463,708158369,515311869
2,3,3,2,3676418,12615462,80409635,1994567036,1445164377
2,3,3,3,4703809,12560721,76341960,2939714011,2135323495
2,3,4,3,6096508,12474812,139698525,4414126655,3097082650
2,4,4,3,11407820,12530594,426803916,13295611165,10353432790
3,2,2,1,2395751,12691381,74571881,929542791,704267619
3,2,2,2,3796337,13333824,79657646,1858673082,1440750261
3,2,3,2,5548502,13436850,248533949,4598706011,3394477207
4,2,2,1,6763583,14884702,709830833,7136765753,6307849392
